<svg xmlns="http://www.w3.org/2000/svg" viewBox="0 0 22.02 22.02">
    <circle class="cls-1" cx="11.01" cy="11.01" r="10.51" />
    <line class="cls-1" x1="11.01" y1="12.76" x2="11.01" y2="5.88" />
    <line class="cls-1" x1="11.01" y1="16.33" x2="11.01" y2="15.85" />
</svg>